2019 Exploratory Data Analysis
…
# most popular start stations
top_stations <- df %>%
  count(start_station_name, member_casual, sort = TRUE) %>%
  group_by(member_casual) %>%
  top_n(20, n)

print(top_stations)

## # A tibble: 40 × 3
## # Groups:   member_casual [2]
##    start_station_name           member_casual     n
##    <chr>                        <chr>         <int>
##  1 Streeter Dr & Grand Ave      casual        53104
##  2 Canal St & Adams St          member        50575
##  3 Clinton St & Madison St      member        45990
##  4 Clinton St & Washington Blvd member        45378
##  5 Lake Shore Dr & Monroe St    casual        39238
##  6 Columbus Dr & Randolph St    member        31370
##  7 Franklin St & Monroe St      member        30832
##  8 Kingsbury St & Kinzie St     member        30654
##  9 Daley Center Plaza           member        30423
## 10 Canal St & Madison St        member        27138
## # ℹ 30 more rows

# most popular end stations
top_stations <- df %>%
  count(end_station_name, member_casual, sort = TRUE) %>%
  group_by(member_casual) %>%
  top_n(20, n)

print(top_stations)

## # A tibble: 40 × 3
## # Groups:   member_casual [2]
##    end_station_name             member_casual     n
##    <chr>                        <chr>         <int>
##  1 Streeter Dr & Grand Ave      casual        67585
##  2 Clinton St & Washington Blvd member        48193
##  3 Canal St & Adams St          member        47330
##  4 Clinton St & Madison St      member        44307
##  5 Lake Shore Dr & Monroe St    casual        30673
##  6 Daley Center Plaza           member        30631
##  7 Kingsbury St & Kinzie St     member        30212
##  8 Michigan Ave & Washington St member        27934
##  9 Franklin St & Monroe St      member        26763
## 10 Canal St & Madison St        member        26339
## # ℹ 30 more rows
…
